No,Mchn,EnNo,Name,Mode,IOMd,DateTime
1,1,1,shivv                           ,1,1,2018/09/11  12:22:59
2,1,1,shivv                           ,1,1,2018/09/11  12:35:05
3,1,1,shivv                           ,1,1,2018/09/11  14:27:48
4,1,1,shivv                           ,1,1,2018/09/27  10:16:11
5,1,15,SIDDARDH.RA                     ,1,1,2018/09/27  10:51:20
6,1,7,KRISHNAKUMAR.L                  ,1,1,2018/09/27  10:51:25
7,1,19,TAMILSELVAN.AV                  ,1,1,2018/09/27  10:51:33
8,1,5,DEEPTHIKA.PS                    ,1,1,2018/09/27  10:51:53
9,1,11,SEENIVASAN.M                    ,1,1,2018/09/27  10:51:58
10,1,10,SASITHARAN                      ,1,1,2018/09/27  10:52:00
11,1,14,SHIVA.A                         ,1,1,2018/09/27  10:52:04
12,1,4,CHANDRAMOULI.AR                 ,1,1,2018/09/27  10:52:07
13,1,9,MUTHIAH.MS                      ,1,1,2018/09/27  10:52:13
14,1,16,SHIVV                           ,1,1,2018/09/27  16:20:28
15,1,12,VICTOR                          ,1,1,2018/09/27  16:21:53
16,1,18,TAMILARASAN                     ,1,1,2018/09/27  16:22:00
17,1,2,Bharath.S                       ,1,1,2018/09/27  16:22:24
18,1,16,SHIVV                           ,1,1,2018/09/27  16:29:17
19,1,11,SEENIVASAN.M                    ,1,1,2018/09/27  17:46:49
20,1,7,KRISHNAKUMAR.L                  ,1,1,2018/09/27  17:47:11
21,1,15,SIDDARDH.RA                     ,1,1,2018/09/27  17:47:41
22,1,11,SEENIVASAN.M                    ,1,1,2018/09/27  17:47:55
23,1,1,shivv                           ,1,1,2018/09/27  18:27:37
24,1,19,TAMILSELVAN.AV                  ,1,1,2018/09/27  18:28:42
25,1,16,SHIVV                           ,1,1,2018/09/27  18:34:53
26,1,8,MAHALINGAM                      ,1,1,2018/09/27  18:35:15
27,1,18,TAMILARASAN                     ,1,1,2018/09/27  18:35:20
28,1,11,SEENIVASAN.M                    ,1,1,2018/09/27  18:40:44
29,1,9,MUTHIAH.MS                      ,1,1,2018/09/27  18:40:58
30,1,5,DEEPTHIKA.PS                    ,1,1,2018/09/27  18:41:30
31,1,14,SHIVA.A                         ,1,1,2018/09/27  18:41:35
32,1,7,KRISHNAKUMAR.L                  ,1,1,2018/09/27  18:41:56
33,1,4,CHANDRAMOULI.AR                 ,1,1,2018/09/27  18:42:00
34,1,10,SASITHARAN                      ,1,1,2018/09/27  19:07:50
35,1,6,GANESH.A                        ,1,1,2018/09/27  19:07:56
36,1,2,Bharath.S                       ,1,1,2018/09/27  19:17:49
37,1,10,SASITHARAN                      ,1,1,2018/09/28  06:02:22
38,1,12,VICTOR                          ,1,1,2018/09/28  06:02:32
39,1,6,GANESH.A                        ,1,1,2018/09/28  06:08:02
40,1,6,GANESH.A                        ,1,1,2018/09/28  06:17:05
41,1,4,CHANDRAMOULI.AR                 ,1,1,2018/09/28  09:28:05
42,1,11,SEENIVASAN.M                    ,1,1,2018/09/28  09:35:00
43,1,19,TAMILSELVAN.AV                  ,1,1,2018/09/28  09:51:58
44,1,15,SIDDARDH.RA                     ,1,1,2018/09/28  09:53:11
45,1,14,SHIVA.A                         ,1,1,2018/09/28  09:53:23
46,1,7,KRISHNAKUMAR.L                  ,1,1,2018/09/28  09:55:11
47,1,8,MAHALINGAM                      ,1,1,2018/09/28  09:55:54
48,1,5,DEEPTHIKA.PS                    ,1,1,2018/09/28  09:55:57
49,1,3,BHASKAR.R                       ,1,1,2018/09/28  09:59:29
50,1,17,SOUNDARYA                       ,1,1,2018/09/28  09:59:34
51,1,9,MUTHIAH.MS                      ,1,1,2018/09/28  10:08:10
52,1,18,TAMILARASAN                     ,1,1,2018/09/28  10:10:26
53,1,16,SHIVV                           ,1,1,2018/09/28  10:30:29
54,1,6,GANESH.A                        ,1,1,2018/09/28  17:59:58
55,1,12,VICTOR                          ,1,1,2018/09/28  18:05:39
56,1,18,TAMILARASAN                     ,1,1,2018/09/28  18:11:58
57,1,8,MAHALINGAM                      ,1,1,2018/09/28  18:48:05
58,1,10,SASITHARAN                      ,1,1,2018/09/28  18:48:08
59,1,1,shivv                           ,1,1,2018/09/28  18:48:32
60,1,9,MUTHIAH.MS                      ,1,1,2018/09/28  19:15:20
61,1,4,CHANDRAMOULI.AR                 ,1,1,2018/09/28  19:15:31
62,1,5,DEEPTHIKA.PS                    ,1,1,2018/09/28  19:15:59
63,1,14,SHIVA.A                         ,1,1,2018/09/28  19:16:34
64,1,11,SEENIVASAN.M                    ,1,1,2018/09/28  19:16:46
65,1,15,SIDDARDH.RA                     ,1,1,2018/09/28  19:59:33
66,1,7,KRISHNAKUMAR.L                  ,1,1,2018/09/28  20:02:14
67,1,11,SEENIVASAN.M                    ,1,1,2018/09/28  20:02:30
68,1,19,TAMILSELVAN.AV                  ,1,1,2018/09/28  20:03:11
69,1,3,BHASKAR.R                       ,1,1,2018/09/28  20:19:30
70,1,2,Bharath.S                       ,1,1,2018/09/29  09:38:27
71,1,4,CHANDRAMOULI.AR                 ,1,1,2018/09/29  09:38:29
72,1,11,SEENIVASAN.M                    ,1,1,2018/09/29  09:42:07
73,1,10,SASITHARAN                      ,1,1,2018/09/29  09:44:39
74,1,19,TAMILSELVAN.AV                  ,1,1,2018/09/29  09:50:34
75,1,14,SHIVA.A                         ,1,1,2018/09/29  09:50:37
76,1,6,GANESH.A                        ,1,1,2018/09/29  09:51:31
77,1,18,TAMILARASAN                     ,1,1,2018/09/29  09:51:59
78,1,7,KRISHNAKUMAR.L                  ,1,1,2018/09/29  09:54:09
79,1,15,SIDDARDH.RA                     ,1,1,2018/09/29  09:55:19
80,1,5,DEEPTHIKA.PS                    ,1,1,2018/09/29  10:00:46
81,1,3,BHASKAR.R                       ,1,1,2018/09/29  10:05:26
82,1,8,MAHALINGAM                      ,1,1,2018/09/29  10:17:28
83,1,13,SHERAJ                          ,1,1,2018/09/29  10:23:07
84,1,12,VICTOR                          ,1,1,2018/09/29  10:26:26
85,1,9,MUTHIAH.MS                      ,1,1,2018/09/29  10:31:07
86,1,19,TAMILSELVAN.AV                  ,1,1,2018/09/29  18:08:05
87,1,19,TAMILSELVAN.AV                  ,1,1,2018/09/29  18:16:49
88,1,7,KRISHNAKUMAR.L                  ,1,1,2018/09/29  18:17:05
89,1,11,SEENIVASAN.M                    ,1,1,2018/09/29  18:17:13
90,1,15,SIDDARDH.RA                     ,1,1,2018/09/29  18:17:38
91,1,8,MAHALINGAM                      ,1,1,2018/09/29  18:24:09
92,1,9,MUTHIAH.MS                      ,1,1,2018/09/29  18:40:07
93,1,14,SHIVA.A                         ,1,1,2018/09/29  18:40:17
94,1,5,DEEPTHIKA.PS                    ,1,1,2018/09/29  18:40:27
95,1,4,CHANDRAMOULI.AR                 ,1,1,2018/09/29  18:40:41
96,1,10,SASITHARAN                      ,1,1,2018/09/29  18:44:23
97,1,12,VICTOR                          ,1,1,2018/09/29  18:44:30
98,1,6,GANESH.A                        ,1,1,2018/09/29  18:44:34
99,1,13,SHERAJ                          ,1,1,2018/09/29  18:44:42
100,1,2,Bharath.S                       ,1,1,2018/09/29  18:44:49
101,1,3,BHASKAR.R                       ,1,1,2018/09/29  20:07:34
102,1,1,shivv                           ,1,1,2018/10/01  08:52:33
103,1,11,SEENIVASAN.M                    ,1,1,2018/10/01  09:27:37
104,1,2,Bharath.S                       ,1,1,2018/10/01  09:29:27
105,1,17,SOUNDARYA                       ,1,1,2018/10/01  09:38:36
106,1,4,CHANDRAMOULI.AR                 ,1,1,2018/10/01  09:39:10
107,1,14,SHIVA.A                         ,1,1,2018/10/01  09:39:15
108,1,19,TAMILSELVAN.AV                  ,1,1,2018/10/01  09:46:28
109,1,6,GANESH.A                        ,1,1,2018/10/01  09:47:36
110,1,13,SHERAJ                          ,1,1,2018/10/01  09:50:10
111,1,7,KRISHNAKUMAR.L                  ,1,1,2018/10/01  09:52:12
112,1,12,VICTOR                          ,1,1,2018/10/01  10:19:46
113,1,20,LAVANYA.S                       ,1,1,2018/10/01  10:21:15
114,1,15,SIDDARDH.RA                     ,1,1,2018/10/01  10:40:34
115,1,9,MUTHIAH.MS                      ,1,1,2018/10/01  10:50:49
116,1,21,NAVEEN.RAJ                      ,1,1,2018/10/01  11:32:00
117,1,1,shivv                           ,1,1,2018/10/01  16:23:44
118,1,16,SHIVV                           ,1,1,2018/10/01  16:23:48
119,1,4,CHANDRAMOULI.AR                 ,1,1,2018/10/01  18:32:27
120,1,9,MUTHIAH.MS                      ,1,1,2018/10/01  18:33:30
121,1,20,LAVANYA.S                       ,1,1,2018/10/01  18:33:44
122,1,14,SHIVA.A                         ,1,1,2018/10/01  18:33:51
123,1,12,VICTOR                          ,1,1,2018/10/01  18:34:23
124,1,7,KRISHNAKUMAR.L                  ,1,1,2018/10/01  18:44:39
125,1,7,KRISHNAKUMAR.L                  ,1,1,2018/10/01  18:45:55
126,1,11,SEENIVASAN.M                    ,1,1,2018/10/01  18:46:55
127,1,19,TAMILSELVAN.AV                  ,1,1,2018/10/01  18:49:27
128,1,15,SIDDARDH.RA                     ,1,1,2018/10/01  18:49:30
129,1,21,NAVEEN.RAJ                      ,1,1,2018/10/01  18:49:43
130,1,1,shivv                           ,1,1,2018/10/01  19:20:49
131,1,13,SHERAJ                          ,1,1,2018/10/01  19:31:53
132,1,6,GANESH.A                        ,1,1,2018/10/01  19:33:40
133,1,2,Bharath.S                       ,1,1,2018/10/01  19:34:11
134,1,3,BHASKAR.R                       ,1,1,2018/10/02  11:27:12
135,1,1,shivv                           ,1,1,2018/10/02  12:04:42
136,1,10,SASITHARAN                      ,1,1,2018/10/03  09:08:36
137,1,6,GANESH.A                        ,1,1,2018/10/03  09:08:40
138,1,1,shivv                           ,1,1,2018/10/03  09:09:46
139,1,4,CHANDRAMOULI.AR                 ,1,1,2018/10/03  09:20:35
140,1,3,BHASKAR.R                       ,1,1,2018/10/03  09:24:22
141,1,17,SOUNDARYA                       ,1,1,2018/10/03  09:24:28
142,1,5,DEEPTHIKA.PS                    ,1,1,2018/10/03  09:36:26
143,1,11,SEENIVASAN.M                    ,1,1,2018/10/03  09:42:02
144,1,15,SIDDARDH.RA                     ,1,1,2018/10/03  09:50:06
145,1,19,TAMILSELVAN.AV                  ,1,1,2018/10/03  09:56:20
146,1,14,SHIVA.A                         ,1,1,2018/10/03  10:02:25
147,1,12,VICTOR                          ,1,1,2018/10/03  10:10:54
148,1,8,MAHALINGAM                      ,1,1,2018/10/03  10:13:26
149,1,20,LAVANYA.S                       ,1,1,2018/10/03  10:37:26
150,1,9,MUTHIAH.MS                      ,1,1,2018/10/03  10:37:46
151,1,18,TAMILARASAN                     ,1,1,2018/10/03  10:38:21
152,1,13,SHERAJ                          ,1,1,2018/10/03  10:41:34
153,1,21,NAVEEN.RAJ                      ,1,1,2018/10/03  10:44:55
154,1,2,Bharath.S                       ,1,1,2018/10/03  10:50:11
155,1,18,TAMILARASAN                     ,1,1,2018/10/03  18:29:10
156,1,20,LAVANYA.S                       ,1,1,2018/10/03  18:30:52
157,1,12,VICTOR                          ,1,1,2018/10/03  18:33:26
158,1,10,SASITHARAN                      ,1,1,2018/10/03  18:44:03
159,1,2,Bharath.S                       ,1,1,2018/10/03  18:48:29
160,1,13,SHERAJ                          ,1,1,2018/10/03  18:48:34
161,1,8,MAHALINGAM                      ,1,1,2018/10/03  19:10:23
162,1,6,GANESH.A                        ,1,1,2018/10/03  19:10:27
163,1,19,TAMILSELVAN.AV                  ,1,1,2018/10/03  19:36:38
164,1,4,CHANDRAMOULI.AR                 ,1,1,2018/10/03  19:47:15
165,1,14,SHIVA.A                         ,1,1,2018/10/03  19:47:19
166,1,5,DEEPTHIKA.PS                    ,1,1,2018/10/03  19:47:23
167,1,1,shivv                           ,1,1,2018/10/03  20:26:08
168,1,17,SOUNDARYA                       ,1,1,2018/10/03  20:35:26
169,1,3,BHASKAR.R                       ,1,1,2018/10/03  20:35:32
170,1,1,shivv                           ,1,1,2018/10/04  09:24:21
171,1,5,DEEPTHIKA.PS                    ,1,1,2018/10/04  09:40:58
172,1,15,SIDDARDH.RA                     ,1,1,2018/10/04  09:45:14
173,1,11,SEENIVASAN.M                    ,1,1,2018/10/04  09:45:21
174,1,4,CHANDRAMOULI.AR                 ,1,1,2018/10/04  09:45:36
175,1,14,SHIVA.A                         ,1,1,2018/10/04  09:47:49
176,1,10,SASITHARAN                      ,1,1,2018/10/04  09:50:24
177,1,2,Bharath.S                       ,1,1,2018/10/04  09:57:21
178,1,7,KRISHNAKUMAR.L                  ,1,1,2018/10/04  10:00:38
179,1,13,SHERAJ                          ,1,1,2018/10/04  10:06:21
180,1,19,TAMILSELVAN.AV                  ,1,1,2018/10/04  10:08:57
181,1,6,GANESH.A                        ,1,1,2018/10/04  10:12:14
182,1,12,VICTOR                          ,1,1,2018/10/04  10:16:11
183,1,8,MAHALINGAM                      ,1,1,2018/10/04  10:16:27
184,1,17,SOUNDARYA                       ,1,1,2018/10/04  10:20:43
185,1,21,NAVEEN.RAJ                      ,1,1,2018/10/04  10:42:23
186,1,18,TAMILARASAN                     ,1,1,2018/10/04  10:45:22
187,1,20,LAVANYA.S                       ,1,1,2018/10/04  11:45:42
188,1,20,LAVANYA.S                       ,1,1,2018/10/04  18:22:08
189,1,14,SHIVA.A                         ,1,1,2018/10/04  18:25:21
190,1,4,CHANDRAMOULI.AR                 ,1,1,2018/10/04  18:26:24
191,1,5,DEEPTHIKA.PS                    ,1,1,2018/10/04  18:26:28
192,1,6,GANESH.A                        ,1,1,2018/10/04  18:30:30
193,1,7,KRISHNAKUMAR.L                  ,1,1,2018/10/04  18:31:53
194,1,15,SIDDARDH.RA                     ,1,1,2018/10/04  18:32:26
195,1,19,TAMILSELVAN.AV                  ,1,1,2018/10/04  18:32:29
196,1,11,SEENIVASAN.M                    ,1,1,2018/10/04  18:32:32
197,1,12,VICTOR                          ,1,1,2018/10/04  18:35:14
198,1,13,SHERAJ                          ,1,1,2018/10/04  18:39:31
199,1,2,Bharath.S                       ,1,1,2018/10/04  19:09:38
200,1,1,shivv                           ,1,1,2018/10/04  19:33:40
201,1,10,SASITHARAN                      ,1,1,2018/10/04  19:33:48
202,1,14,SHIVA.A                         ,1,1,2018/10/05  08:11:40
203,1,4,CHANDRAMOULI.AR                 ,1,1,2018/10/05  08:11:58
204,1,11,SEENIVASAN.M                    ,1,1,2018/10/05  08:45:30
205,1,5,DEEPTHIKA.PS                    ,1,1,2018/10/05  08:45:47
206,1,10,SASITHARAN                      ,1,1,2018/10/05  09:22:53
207,1,13,SHERAJ                          ,1,1,2018/10/05  09:32:35
208,1,2,Bharath.S                       ,1,1,2018/10/05  09:56:17
209,1,7,KRISHNAKUMAR.L                  ,1,1,2018/10/05  09:59:26
210,1,15,SIDDARDH.RA                     ,1,1,2018/10/05  09:59:37
211,1,19,TAMILSELVAN.AV                  ,1,1,2018/10/05  10:00:01
212,1,6,GANESH.A                        ,1,1,2018/10/05  10:01:51
213,1,12,VICTOR                          ,1,1,2018/10/05  10:11:09
214,1,21,NAVEEN.RAJ                      ,1,1,2018/10/05  10:16:11
215,1,18,TAMILARASAN                     ,1,1,2018/10/05  10:25:42
216,1,20,LAVANYA.S                       ,1,1,2018/10/05  10:58:01
217,1,17,SOUNDARYA                       ,1,1,2018/10/05  10:59:49
218,1,8,MAHALINGAM                      ,1,1,2018/10/05  11:08:51
219,1,19,TAMILSELVAN.AV                  ,1,1,2018/10/05  13:32:07
220,1,10,SASITHARAN                      ,1,1,2018/10/05  13:32:09
221,1,1,shivv                           ,1,1,2018/10/05  14:25:31
222,1,19,TAMILSELVAN.AV                  ,1,1,2018/10/05  16:26:05
223,1,17,SOUNDARYA                       ,1,1,2018/10/05  16:56:10
224,1,19,TAMILSELVAN.AV                  ,1,1,2018/10/05  17:53:47
225,1,19,TAMILSELVAN.AV                  ,1,1,2018/10/05  17:57:40
226,1,7,KRISHNAKUMAR.L                  ,1,1,2018/10/05  18:13:18
227,1,15,SIDDARDH.RA                     ,1,1,2018/10/05  18:13:41
228,1,11,SEENIVASAN.M                    ,1,1,2018/10/05  18:13:46
229,1,18,TAMILARASAN                     ,1,1,2018/10/05  18:15:42
230,1,6,GANESH.A                        ,1,1,2018/10/05  18:22:32
231,1,5,DEEPTHIKA.PS                    ,1,1,2018/10/05  18:25:25
232,1,12,VICTOR                          ,1,1,2018/10/05  18:25:38
233,1,14,SHIVA.A                         ,1,1,2018/10/05  18:26:27
234,1,10,SASITHARAN                      ,1,1,2018/10/05  18:26:37
235,1,4,CHANDRAMOULI.AR                 ,1,1,2018/10/05  18:27:11
236,1,2,Bharath.S                       ,1,1,2018/10/05  18:29:08
237,1,13,SHERAJ                          ,1,1,2018/10/05  18:40:59
238,1,11,SEENIVASAN.M                    ,1,1,2018/10/06  09:29:17
239,1,4,CHANDRAMOULI.AR                 ,1,1,2018/10/06  09:36:27
240,1,17,SOUNDARYA                       ,1,1,2018/10/06  09:51:44
241,1,7,KRISHNAKUMAR.L                  ,1,1,2018/10/06  09:52:57
242,1,2,Bharath.S                       ,1,1,2018/10/06  09:54:42
243,1,21,NAVEEN.RAJ                      ,1,1,2018/10/06  10:01:38
244,1,18,TAMILARASAN                     ,1,1,2018/10/06  10:07:08
245,1,6,GANESH.A                        ,1,1,2018/10/06  10:11:06
246,1,12,VICTOR                          ,1,1,2018/10/06  10:11:24
247,1,19,TAMILSELVAN.AV                  ,1,1,2018/10/06  10:27:18
248,1,14,SHIVA.A                         ,1,1,2018/10/06  10:27:23
249,1,5,DEEPTHIKA.PS                    ,1,1,2018/10/06  10:32:23
250,1,19,TAMILSELVAN.AV                  ,1,1,2018/10/06  10:40:05
251,1,8,MAHALINGAM                      ,1,1,2018/10/06  10:42:52
252,1,13,SHERAJ                          ,1,1,2018/10/06  10:53:13
253,1,20,LAVANYA.S                       ,1,1,2018/10/06  12:17:42
254,1,18,TAMILARASAN                     ,1,1,2018/10/06  17:48:01
255,1,2,Bharath.S                       ,1,1,2018/10/06  17:48:04
256,1,12,VICTOR                          ,1,1,2018/10/06  18:03:05
257,1,4,CHANDRAMOULI.AR                 ,1,1,2018/10/06  18:12:10
258,1,5,DEEPTHIKA.PS                    ,1,1,2018/10/06  18:12:23
259,1,14,SHIVA.A                         ,1,1,2018/10/06  18:12:30
260,1,8,MAHALINGAM                      ,1,1,2018/10/06  18:13:18
261,1,6,GANESH.A                        ,1,1,2018/10/06  18:13:22
262,1,7,KRISHNAKUMAR.L                  ,1,1,2018/10/06  18:15:54
263,1,11,SEENIVASAN.M                    ,1,1,2018/10/06  18:16:05
264,1,19,TAMILSELVAN.AV                  ,1,1,2018/10/06  18:16:08
265,1,13,SHERAJ                          ,1,1,2018/10/06  18:18:52
266,1,17,SOUNDARYA                       ,1,1,2018/10/06  18:37:36
267,1,3,BHASKAR.R                       ,1,1,2018/10/07  14:29:46
268,1,1,shivv                           ,1,1,2018/10/08  08:46:07
269,1,4,CHANDRAMOULI.AR                 ,1,1,2018/10/08  09:20:16
270,1,10,SASITHARAN                      ,1,1,2018/10/08  09:37:55
271,1,15,SIDDARDH.RA                     ,1,1,2018/10/08  09:41:34
272,1,19,TAMILSELVAN.AV                  ,1,1,2018/10/08  09:43:59
273,1,21,NAVEEN.RAJ                      ,1,1,2018/10/08  09:44:02
274,1,11,SEENIVASAN.M                    ,1,1,2018/10/08  09:45:12
275,1,5,DEEPTHIKA.PS                    ,1,1,2018/10/08  09:52:51
276,1,7,KRISHNAKUMAR.L                  ,1,1,2018/10/08  09:56:14
277,1,2,Bharath.S                       ,1,1,2018/10/08  09:56:39
278,1,6,GANESH.A                        ,1,1,2018/10/08  10:15:42
279,1,8,MAHALINGAM                      ,1,1,2018/10/08  10:18:24
280,1,13,SHERAJ                          ,1,1,2018/10/08  10:20:07
281,1,12,VICTOR                          ,1,1,2018/10/08  10:22:21
282,1,18,TAMILARASAN                     ,1,1,2018/10/08  10:29:20
283,1,3,BHASKAR.R                       ,1,1,2018/10/08  11:32:12
284,1,17,SOUNDARYA                       ,1,1,2018/10/08  11:32:18
285,1,18,TAMILARASAN                     ,1,1,2018/10/08  18:13:46
286,1,8,MAHALINGAM                      ,1,1,2018/10/08  18:15:44
287,1,6,GANESH.A                        ,1,1,2018/10/08  18:15:52
288,1,12,VICTOR                          ,1,1,2018/10/08  18:39:48
289,1,10,SASITHARAN                      ,1,1,2018/10/08  18:40:59
290,1,13,SHERAJ                          ,1,1,2018/10/08  19:03:36
291,1,2,Bharath.S                       ,1,1,2018/10/08  19:03:48
292,1,5,DEEPTHIKA.PS                    ,1,1,2018/10/08  19:21:01
293,1,1,shivv                           ,1,1,2018/10/08  22:41:58
294,1,3,BHASKAR.R                       ,1,1,2018/10/08  22:42:12
295,1,1,shivv                           ,1,1,2018/10/09  09:27:57
296,1,10,SASITHARAN                      ,1,1,2018/10/09  09:36:58
297,1,13,SHERAJ                          ,1,1,2018/10/09  09:37:02
298,1,6,GANESH.A                        ,1,1,2018/10/09  09:40:07
299,1,14,SHIVA.A                         ,1,1,2018/10/09  09:43:40
300,1,4,CHANDRAMOULI.AR                 ,1,1,2018/10/09  09:43:46
301,1,5,DEEPTHIKA.PS                    ,1,1,2018/10/09  09:47:13
302,1,15,SIDDARDH.RA                     ,1,1,2018/10/09  09:52:06
303,1,2,Bharath.S                       ,1,1,2018/10/09  09:58:10
304,1,8,MAHALINGAM                      ,1,1,2018/10/09  09:58:14
305,1,19,TAMILSELVAN.AV                  ,1,1,2018/10/09  09:59:42
306,1,21,NAVEEN.RAJ                      ,1,1,2018/10/09  10:00:20
307,1,18,TAMILARASAN                     ,1,1,2018/10/09  10:05:03
308,1,7,KRISHNAKUMAR.L                  ,1,1,2018/10/09  10:09:02
309,1,11,SEENIVASAN.M                    ,1,1,2018/10/09  10:09:04
310,1,17,SOUNDARYA                       ,1,1,2018/10/09  10:18:31
311,1,12,VICTOR                          ,1,1,2018/10/09  10:33:35
312,1,3,BHASKAR.R                       ,1,1,2018/10/09  11:03:52
313,1,10,SASITHARAN                      ,1,1,2018/10/09  15:40:20
314,1,1,shivv                           ,1,1,2018/10/09  17:43:21
315,1,21,NAVEEN.RAJ                      ,1,1,2018/10/09  18:31:20
316,1,15,SIDDARDH.RA                     ,1,1,2018/10/09  18:34:28
317,1,7,KRISHNAKUMAR.L                  ,1,1,2018/10/09  18:34:53
318,1,19,TAMILSELVAN.AV                  ,1,1,2018/10/09  18:41:58
319,1,11,SEENIVASAN.M                    ,1,1,2018/10/09  18:42:06
320,1,14,SHIVA.A                         ,1,1,2018/10/09  18:46:11
321,1,5,DEEPTHIKA.PS                    ,1,1,2018/10/09  18:46:16
322,1,4,CHANDRAMOULI.AR                 ,1,1,2018/10/09  18:46:59
323,1,2,Bharath.S                       ,1,1,2018/10/09  18:48:50
324,1,6,GANESH.A                        ,1,1,2018/10/09  18:48:55
325,1,12,VICTOR                          ,1,1,2018/10/09  18:55:08
326,1,18,TAMILARASAN                     ,1,1,2018/10/09  18:55:14
327,1,13,SHERAJ                          ,1,1,2018/10/09  19:00:39
328,1,8,MAHALINGAM                      ,1,1,2018/10/09  19:00:56
329,1,3,BHASKAR.R                       ,1,1,2018/10/09  19:21:13
330,1,17,SOUNDARYA                       ,1,1,2018/10/09  19:21:18
331,1,10,SASITHARAN                      ,1,1,2018/10/10  09:32:25
332,1,4,CHANDRAMOULI.AR                 ,1,1,2018/10/10  09:38:11
333,1,11,SEENIVASAN.M                    ,1,1,2018/10/10  09:45:11
334,1,5,DEEPTHIKA.PS                    ,1,1,2018/10/10  09:45:46
335,1,13,SHERAJ                          ,1,1,2018/10/10  09:47:19
336,1,19,TAMILSELVAN.AV                  ,1,1,2018/10/10  09:48:12
337,1,6,GANESH.A                        ,1,1,2018/10/10  09:49:57
338,1,7,KRISHNAKUMAR.L                  ,1,1,2018/10/10  09:50:20
339,1,8,MAHALINGAM                      ,1,1,2018/10/10  09:59:55
340,1,2,Bharath.S                       ,1,1,2018/10/10  09:59:56
341,1,15,SIDDARDH.RA                     ,1,1,2018/10/10  10:06:55
342,1,21,NAVEEN.RAJ                      ,1,1,2018/10/10  10:10:09
343,1,3,BHASKAR.R                       ,1,1,2018/10/10  10:15:03
344,1,18,TAMILARASAN                     ,1,1,2018/10/10  10:15:10
345,1,17,SOUNDARYA                       ,1,1,2018/10/10  10:18:03
346,1,12,VICTOR                          ,1,1,2018/10/10  10:25:50
347,1,1,shivv                           ,1,1,2018/10/10  10:44:35
348,1,1,shivv                           ,1,1,2018/10/10  17:51:52
349,1,17,SOUNDARYA                       ,1,1,2018/10/10  18:09:25
350,1,4,CHANDRAMOULI.AR                 ,1,1,2018/10/10  18:27:34
351,1,5,DEEPTHIKA.PS                    ,1,1,2018/10/10  18:27:36
352,1,21,NAVEEN.RAJ                      ,1,1,2018/10/10  18:32:07
353,1,19,TAMILSELVAN.AV                  ,1,1,2018/10/10  18:33:19
354,1,11,SEENIVASAN.M                    ,1,1,2018/10/10  18:33:26
355,1,7,KRISHNAKUMAR.L                  ,1,1,2018/10/10  18:33:31
356,1,15,SIDDARDH.RA                     ,1,1,2018/10/10  18:34:33
357,1,18,TAMILARASAN                     ,1,1,2018/10/10  18:47:42
358,1,10,SASITHARAN                      ,1,1,2018/10/10  18:52:36
359,1,8,MAHALINGAM                      ,1,1,2018/10/10  19:04:57
360,1,6,GANESH.A                        ,1,1,2018/10/10  19:05:02
361,1,3,BHASKAR.R                       ,1,1,2018/10/10  19:09:24
362,1,2,Bharath.S                       ,1,1,2018/10/10  19:10:53
363,1,13,SHERAJ                          ,1,1,2018/10/10  21:09:35
364,1,6,GANESH.A                        ,1,1,2018/10/11  07:58:39
365,1,10,SASITHARAN                      ,1,1,2018/10/11  07:58:43
366,1,12,VICTOR                          ,1,1,2018/10/11  08:03:03
367,1,8,MAHALINGAM                      ,1,1,2018/10/11  08:17:56
368,1,4,CHANDRAMOULI.AR                 ,1,1,2018/10/11  09:26:37
369,1,11,SEENIVASAN.M                    ,1,1,2018/10/11  09:28:49
370,1,18,TAMILARASAN                     ,1,1,2018/10/11  09:33:14
371,1,5,DEEPTHIKA.PS                    ,1,1,2018/10/11  09:42:51
372,1,14,SHIVA.A                         ,1,1,2018/10/11  09:52:48
373,1,15,SIDDARDH.RA                     ,1,1,2018/10/11  09:56:09
374,1,13,SHERAJ                          ,1,1,2018/10/11  09:57:41
375,1,7,KRISHNAKUMAR.L                  ,1,1,2018/10/11  10:03:28
376,1,19,TAMILSELVAN.AV                  ,1,1,2018/10/11  10:04:48
377,1,2,Bharath.S                       ,1,1,2018/10/11  10:07:33
378,1,21,NAVEEN.RAJ                      ,1,1,2018/10/11  10:23:29
379,1,17,SOUNDARYA                       ,1,1,2018/10/11  10:30:09
380,1,22,mohammed.yousuf                 ,1,1,2018/10/11  11:01:12
381,1,23,rajakumar                       ,1,1,2018/10/11  11:14:09
382,1,17,SOUNDARYA                       ,1,1,2018/10/11  11:37:54
383,1,6,GANESH.A                        ,1,1,2018/10/11  17:51:21
384,1,12,VICTOR                          ,1,1,2018/10/11  18:12:18
385,1,18,TAMILARASAN                     ,1,1,2018/10/11  18:12:21
386,1,10,SASITHARAN                      ,1,1,2018/10/11  18:32:33
387,1,13,SHERAJ                          ,1,1,2018/10/11  18:34:27
388,1,7,KRISHNAKUMAR.L                  ,1,1,2018/10/11  18:58:14
389,1,19,TAMILSELVAN.AV                  ,1,1,2018/10/11  18:58:15
390,1,21,NAVEEN.RAJ                      ,1,1,2018/10/11  18:58:17
391,1,2,Bharath.S                       ,1,1,2018/10/11  18:58:22
392,1,11,SEENIVASAN.M                    ,1,1,2018/10/11  18:58:25
393,1,15,SIDDARDH.RA                     ,1,1,2018/10/11  19:00:36
394,1,4,CHANDRAMOULI.AR                 ,1,1,2018/10/11  19:05:31
395,1,14,SHIVA.A                         ,1,1,2018/10/11  19:05:55
396,1,5,DEEPTHIKA.PS                    ,1,1,2018/10/11  19:06:14
397,1,4,CHANDRAMOULI.AR                 ,1,1,2018/10/12  09:27:17
398,1,22,mohammed.yousuf                 ,1,1,2018/10/12  09:27:30
399,1,10,SASITHARAN                      ,1,1,2018/10/12  09:27:33
400,1,3,BHASKAR.R                       ,1,1,2018/10/12  09:28:55
401,1,23,rajakumar                       ,1,1,2018/10/12  09:29:15
402,1,18,TAMILARASAN                     ,1,1,2018/10/12  09:33:28
403,1,19,TAMILSELVAN.AV                  ,1,1,2018/10/12  09:48:58
404,1,15,SIDDARDH.RA                     ,1,1,2018/10/12  09:49:05
405,1,12,VICTOR                          ,1,1,2018/10/12  09:49:08
406,1,6,GANESH.A                        ,1,1,2018/10/12  09:49:37
407,1,11,SEENIVASAN.M                    ,1,1,2018/10/12  09:51:21
408,1,5,DEEPTHIKA.PS                    ,1,1,2018/10/12  09:56:02
409,1,8,MAHALINGAM                      ,1,1,2018/10/12  09:59:55
410,1,2,Bharath.S                       ,1,1,2018/10/12  09:59:56
411,1,7,KRISHNAKUMAR.L                  ,1,1,2018/10/12  10:01:03
412,1,13,SHERAJ                          ,1,1,2018/10/12  10:01:37
413,1,21,NAVEEN.RAJ                      ,1,1,2018/10/12  10:03:44
414,1,17,SOUNDARYA                       ,1,1,2018/10/12  10:17:43
415,1,14,SHIVA.A                         ,1,1,2018/10/12  10:26:27
416,1,4,CHANDRAMOULI.AR                 ,1,1,2018/10/12  18:25:38
417,1,5,DEEPTHIKA.PS                    ,1,1,2018/10/12  18:25:46
418,1,14,SHIVA.A                         ,1,1,2018/10/12  18:25:50
419,1,8,MAHALINGAM                      ,1,1,2018/10/12  18:27:10
420,1,22,mohammed.yousuf                 ,1,1,2018/10/12  18:27:44
421,1,21,NAVEEN.RAJ                      ,1,1,2018/10/12  18:27:48
422,1,11,SEENIVASAN.M                    ,1,1,2018/10/12  18:27:54
423,1,19,TAMILSELVAN.AV                  ,1,1,2018/10/12  18:27:58
424,1,7,KRISHNAKUMAR.L                  ,1,1,2018/10/12  18:28:04
425,1,18,TAMILARASAN                     ,1,1,2018/10/12  18:28:39
426,1,6,GANESH.A                        ,1,1,2018/10/12  18:29:03
427,1,15,SIDDARDH.RA                     ,1,1,2018/10/12  18:30:03
428,1,2,Bharath.S                       ,1,1,2018/10/12  18:34:17
429,1,12,VICTOR                          ,1,1,2018/10/12  18:50:04
430,1,23,rajakumar                       ,1,1,2018/10/12  19:10:03
431,1,13,SHERAJ                          ,1,1,2018/10/12  19:25:45
432,1,10,SASITHARAN                      ,1,1,2018/10/12  19:49:07
433,1,17,SOUNDARYA                       ,1,1,2018/10/12  20:20:59
434,1,3,BHASKAR.R                       ,1,1,2018/10/12  20:21:16
435,1,23,rajakumar                       ,1,1,2018/10/13  09:23:47
436,1,3,BHASKAR.R                       ,1,1,2018/10/13  09:26:04
437,1,10,SASITHARAN                      ,1,1,2018/10/13  09:26:45
438,1,11,SEENIVASAN.M                    ,1,1,2018/10/13  09:29:04
439,1,6,GANESH.A                        ,1,1,2018/10/13  09:41:03
440,1,18,TAMILARASAN                     ,1,1,2018/10/13  09:43:36
441,1,2,Bharath.S                       ,1,1,2018/10/13  09:55:37
442,1,12,VICTOR                          ,1,1,2018/10/13  10:00:03
443,1,8,MAHALINGAM                      ,1,1,2018/10/13  10:02:54
444,1,13,SHERAJ                          ,1,1,2018/10/13  10:07:55
445,1,12,VICTOR                          ,1,1,2018/10/13  17:46:40
446,1,18,TAMILARASAN                     ,1,1,2018/10/13  17:47:13
447,1,23,rajakumar                       ,1,1,2018/10/13  17:53:20
448,1,11,SEENIVASAN.M                    ,1,1,2018/10/13  18:07:27
449,1,10,SASITHARAN                      ,1,1,2018/10/13  18:12:17
450,1,13,SHERAJ                          ,1,1,2018/10/13  18:18:56
451,1,8,MAHALINGAM                      ,1,1,2018/10/13  18:19:30
452,1,6,GANESH.A                        ,1,1,2018/10/13  18:19:34
453,1,2,Bharath.S                       ,1,1,2018/10/13  18:20:46
454,1,6,GANESH.A                        ,1,1,2018/10/15  09:05:14
455,1,5,DEEPTHIKA.PS                    ,1,1,2018/10/15  09:23:01
456,1,10,SASITHARAN                      ,1,1,2018/10/15  09:36:17
457,1,23,rajakumar                       ,1,1,2018/10/15  09:39:58
458,1,4,CHANDRAMOULI.AR                 ,1,1,2018/10/15  09:43:46
459,1,13,SHERAJ                          ,1,1,2018/10/15  09:45:22
460,1,11,SEENIVASAN.M                    ,1,1,2018/10/15  09:46:23
461,1,14,SHIVA.A                         ,1,1,2018/10/15  09:46:26
462,1,7,KRISHNAKUMAR.L                  ,1,1,2018/10/15  09:50:00
463,1,18,TAMILARASAN                     ,1,1,2018/10/15  09:57:20
464,1,8,MAHALINGAM                      ,1,1,2018/10/15  09:57:23
465,1,2,Bharath.S                       ,1,1,2018/10/15  09:57:26
466,1,15,SIDDARDH.RA                     ,1,1,2018/10/15  10:01:27
467,1,19,TAMILSELVAN.AV                  ,1,1,2018/10/15  10:01:32
468,1,22,mohammed.yousuf                 ,1,1,2018/10/15  10:01:36
469,1,21,NAVEEN.RAJ                      ,1,1,2018/10/15  10:06:40
470,1,12,VICTOR                          ,1,1,2018/10/15  10:14:17
471,1,3,BHASKAR.R                       ,1,1,2018/10/15  10:19:51
472,1,17,SOUNDARYA                       ,1,1,2018/10/15  10:19:57
473,1,17,SOUNDARYA                       ,1,1,2018/10/15  17:37:16
474,1,2,Bharath.S                       ,1,1,2018/10/15  18:05:51
475,1,18,TAMILARASAN                     ,1,1,2018/10/15  18:06:04
476,1,23,rajakumar                       ,1,1,2018/10/15  18:35:46
477,1,19,TAMILSELVAN.AV                  ,1,1,2018/10/15  18:43:59
478,1,7,KRISHNAKUMAR.L                  ,1,1,2018/10/15  18:44:10
479,1,21,NAVEEN.RAJ                      ,1,1,2018/10/15  18:44:15
480,1,11,SEENIVASAN.M                    ,1,1,2018/10/15  18:44:21
481,1,5,DEEPTHIKA.PS                    ,1,1,2018/10/15  18:44:57
482,1,4,CHANDRAMOULI.AR                 ,1,1,2018/10/15  18:45:04
483,1,14,SHIVA.A                         ,1,1,2018/10/15  18:45:09
484,1,8,MAHALINGAM                      ,1,1,2018/10/15  18:47:34
485,1,12,VICTOR                          ,1,1,2018/10/15  18:49:58
486,1,6,GANESH.A                        ,1,1,2018/10/15  18:50:02
487,1,13,SHERAJ                          ,1,1,2018/10/15  18:50:08
488,1,3,BHASKAR.R                       ,1,1,2018/10/15  19:11:31
489,1,15,SIDDARDH.RA                     ,1,1,2018/10/15  19:21:46
490,1,10,SASITHARAN                      ,1,1,2018/10/15  21:39:46
491,1,3,BHASKAR.R                       ,1,1,2018/10/16  09:27:44
492,1,13,SHERAJ                          ,1,1,2018/10/16  09:29:12
493,1,10,SASITHARAN                      ,1,1,2018/10/16  09:29:14
494,1,23,rajakumar                       ,1,1,2018/10/16  09:32:48
495,1,5,DEEPTHIKA.PS                    ,1,1,2018/10/16  09:33:39
496,1,4,CHANDRAMOULI.AR                 ,1,1,2018/10/16  09:34:25
497,1,17,SOUNDARYA                       ,1,1,2018/10/16  09:34:34
498,1,6,GANESH.A                        ,1,1,2018/10/16  09:37:18
499,1,8,MAHALINGAM                      ,1,1,2018/10/16  09:37:23
500,1,14,SHIVA.A                         ,1,1,2018/10/16  09:50:19
501,1,11,SEENIVASAN.M                    ,1,1,2018/10/16  09:55:03
502,1,19,TAMILSELVAN.AV                  ,1,1,2018/10/16  09:55:12
503,1,12,VICTOR                          ,1,1,2018/10/16  09:58:17
504,1,2,Bharath.S                       ,1,1,2018/10/16  10:00:37
505,1,7,KRISHNAKUMAR.L                  ,1,1,2018/10/16  10:05:52
506,1,15,SIDDARDH.RA                     ,1,1,2018/10/16  10:05:58
507,1,21,NAVEEN.RAJ                      ,1,1,2018/10/16  10:09:47
508,1,22,mohammed.yousuf                 ,1,1,2018/10/16  10:09:51
509,1,18,TAMILARASAN                     ,1,1,2018/10/16  10:29:27
510,1,10,SASITHARAN                      ,1,1,2018/10/16  18:31:38
511,1,12,VICTOR                          ,1,1,2018/10/16  18:32:11
512,1,18,TAMILARASAN                     ,1,1,2018/10/16  18:32:23
513,1,23,rajakumar                       ,1,1,2018/10/16  18:42:51
514,1,6,GANESH.A                        ,1,1,2018/10/16  18:43:44
515,1,4,CHANDRAMOULI.AR                 ,1,1,2018/10/16  18:45:12
516,1,14,SHIVA.A                         ,1,1,2018/10/16  18:45:37
517,1,5,DEEPTHIKA.PS                    ,1,1,2018/10/16  18:45:41
518,1,7,KRISHNAKUMAR.L                  ,1,1,2018/10/16  18:45:49
519,1,11,SEENIVASAN.M                    ,1,1,2018/10/16  18:45:55
520,1,15,SIDDARDH.RA                     ,1,1,2018/10/16  18:49:01
521,1,13,SHERAJ                          ,1,1,2018/10/16  18:54:04
522,1,8,MAHALINGAM                      ,1,1,2018/10/16  18:54:06
523,1,2,Bharath.S                       ,1,1,2018/10/16  18:54:47
524,1,21,NAVEEN.RAJ                      ,1,1,2018/10/16  19:10:21
525,1,19,TAMILSELVAN.AV                  ,1,1,2018/10/16  19:10:43
526,1,17,SOUNDARYA                       ,1,1,2018/10/16  19:31:34
527,1,3,BHASKAR.R                       ,1,1,2018/10/16  19:31:54
528,1,6,GANESH.A                        ,1,1,2018/10/17  09:29:47
529,1,13,SHERAJ                          ,1,1,2018/10/17  09:33:14
530,1,14,SHIVA.A                         ,1,1,2018/10/17  09:41:15
531,1,11,SEENIVASAN.M                    ,1,1,2018/10/17  09:42:25
532,1,4,CHANDRAMOULI.AR                 ,1,1,2018/10/17  09:42:32
533,1,10,SASITHARAN                      ,1,1,2018/10/17  09:45:11
534,1,23,rajakumar                       ,1,1,2018/10/17  09:45:15
535,1,5,DEEPTHIKA.PS                    ,1,1,2018/10/17  09:52:55
536,1,12,VICTOR                          ,1,1,2018/10/17  10:06:13
537,1,8,MAHALINGAM                      ,1,1,2018/10/17  10:11:24
538,1,7,KRISHNAKUMAR.L                  ,1,1,2018/10/17  10:11:39
539,1,15,SIDDARDH.RA                     ,1,1,2018/10/17  10:11:46
540,1,21,NAVEEN.RAJ                      ,1,1,2018/10/17  10:11:52
541,1,22,mohammed.yousuf                 ,1,1,2018/10/17  10:14:53
542,1,18,TAMILARASAN                     ,1,1,2018/10/17  10:33:38
543,1,19,TAMILSELVAN.AV                  ,1,1,2018/10/17  10:46:45
544,1,17,SOUNDARYA                       ,1,1,2018/10/17  10:55:31
545,1,24,vidya                           ,1,1,2018/10/17  13:23:45
546,1,5,DEEPTHIKA.PS                    ,1,1,2018/10/17  13:24:17
547,1,18,TAMILARASAN                     ,1,1,2018/10/17  17:54:06
548,1,10,SASITHARAN                      ,1,1,2018/10/17  19:21:37
549,1,19,TAMILSELVAN.AV                  ,1,1,2018/10/17  19:24:41
550,1,4,CHANDRAMOULI.AR                 ,1,1,2018/10/17  19:25:01
551,1,8,MAHALINGAM                      ,1,1,2018/10/17  19:25:06
552,1,7,KRISHNAKUMAR.L                  ,1,1,2018/10/17  19:25:09
553,1,14,SHIVA.A                         ,1,1,2018/10/17  19:25:15
554,1,5,DEEPTHIKA.PS                    ,1,1,2018/10/17  19:25:20
555,1,24,vidya                           ,1,1,2018/10/17  19:25:28
556,1,15,SIDDARDH.RA                     ,1,1,2018/10/17  19:25:49
557,1,24,vidya                           ,1,1,2018/10/20  09:53:55
558,1,5,DEEPTHIKA.PS                    ,1,1,2018/10/20  09:53:59
559,1,19,TAMILSELVAN.AV                  ,1,1,2018/10/20  09:54:10
560,1,4,CHANDRAMOULI.AR                 ,1,1,2018/10/20  09:54:12
561,1,22,mohammed.yousuf                 ,1,1,2018/10/20  09:56:23
562,1,7,KRISHNAKUMAR.L                  ,1,1,2018/10/20  10:01:02
563,1,21,NAVEEN.RAJ                      ,1,1,2018/10/20  10:06:58
564,1,14,SHIVA.A                         ,1,1,2018/10/20  10:20:29
565,1,22,mohammed.yousuf                 ,1,1,2018/10/20  15:57:34
566,1,21,NAVEEN.RAJ                      ,1,1,2018/10/20  18:45:56
567,1,19,TAMILSELVAN.AV                  ,1,1,2018/10/20  18:58:11
568,1,7,KRISHNAKUMAR.L                  ,1,1,2018/10/20  18:58:16
569,1,5,DEEPTHIKA.PS                    ,1,1,2018/10/20  18:58:25
570,1,14,SHIVA.A                         ,1,1,2018/10/20  18:58:28
571,1,24,vidya                           ,1,1,2018/10/20  18:58:33
572,1,4,CHANDRAMOULI.AR                 ,1,1,2018/10/20  18:58:44
573,1,10,SASITHARAN                      ,1,1,2018/10/22  09:28:08
574,1,23,rajakumar                       ,1,1,2018/10/22  09:30:31
575,1,4,CHANDRAMOULI.AR                 ,1,1,2018/10/22  09:33:50
576,1,2,Bharath.S                       ,1,1,2018/10/22  09:36:54
577,1,6,GANESH.A                        ,1,1,2018/10/22  09:38:56
578,1,24,vidya                           ,1,1,2018/10/22  09:50:43
579,1,5,DEEPTHIKA.PS                    ,1,1,2018/10/22  09:56:09
580,1,13,SHERAJ                          ,1,1,2018/10/22  09:56:28
581,1,19,TAMILSELVAN.AV                  ,1,1,2018/10/22  09:59:42
582,1,7,KRISHNAKUMAR.L                  ,1,1,2018/10/22  09:59:55
583,1,14,SHIVA.A                         ,1,1,2018/10/22  10:00:04
584,1,19,TAMILSELVAN.AV                  ,1,1,2018/10/22  10:00:51
585,1,15,SIDDARDH.RA                     ,1,1,2018/10/22  10:01:06
586,1,18,TAMILARASAN                     ,1,1,2018/10/22  10:02:44
587,1,21,NAVEEN.RAJ                      ,1,1,2018/10/22  10:13:23
588,1,8,MAHALINGAM                      ,1,1,2018/10/22  10:19:02
589,1,22,mohammed.yousuf                 ,1,1,2018/10/22  10:23:32
590,1,18,TAMILARASAN                     ,1,1,2018/10/22  18:25:51
591,1,15,SIDDARDH.RA                     ,1,1,2018/10/22  18:27:39
592,1,22,mohammed.yousuf                 ,1,1,2018/10/22  18:27:46
593,1,7,KRISHNAKUMAR.L                  ,1,1,2018/10/22  18:28:22
594,1,21,NAVEEN.RAJ                      ,1,1,2018/10/22  18:28:28
595,1,6,GANESH.A                        ,1,1,2018/10/22  18:29:04
596,1,23,rajakumar                       ,1,1,2018/10/22  18:29:09
597,1,14,SHIVA.A                         ,1,1,2018/10/22  18:30:02
598,1,19,TAMILSELVAN.AV                  ,1,1,2018/10/22  18:30:09
599,1,24,vidya                           ,1,1,2018/10/22  18:31:35
600,1,5,DEEPTHIKA.PS                    ,1,1,2018/10/22  18:31:40
601,1,4,CHANDRAMOULI.AR                 ,1,1,2018/10/22  18:31:45
602,1,2,Bharath.S                       ,1,1,2018/10/22  18:34:28
603,1,8,MAHALINGAM                      ,1,1,2018/10/22  18:36:03
604,1,10,SASITHARAN                      ,1,1,2018/10/22  18:38:09
605,1,13,SHERAJ                          ,1,1,2018/10/22  18:39:43
606,1,8,MAHALINGAM                      ,1,1,2018/10/23  05:38:45
607,1,18,TAMILARASAN                     ,1,1,2018/10/23  05:38:50
608,1,10,SASITHARAN                      ,1,1,2018/10/23  09:16:16
609,1,4,CHANDRAMOULI.AR                 ,1,1,2018/10/23  09:25:17
610,1,23,rajakumar                       ,1,1,2018/10/23  09:32:42
611,1,19,TAMILSELVAN.AV                  ,1,1,2018/10/23  09:50:23
612,1,15,SIDDARDH.RA                     ,1,1,2018/10/23  09:50:30
613,1,24,vidya                           ,1,1,2018/10/23  09:51:02
614,1,7,KRISHNAKUMAR.L                  ,1,1,2018/10/23  09:52:44
615,1,6,GANESH.A                        ,1,1,2018/10/23  09:53:56
616,1,2,Bharath.S                       ,1,1,2018/10/23  09:56:42
617,1,21,NAVEEN.RAJ                      ,1,1,2018/10/23  10:00:48
618,1,14,SHIVA.A                         ,1,1,2018/10/23  10:03:53
619,1,11,SEENIVASAN.M                    ,1,1,2018/10/23  10:05:05
620,1,22,mohammed.yousuf                 ,1,1,2018/10/23  10:23:46
621,1,5,DEEPTHIKA.PS                    ,1,1,2018/10/23  10:38:56
622,1,13,SHERAJ                          ,1,1,2018/10/23  11:17:43
623,1,18,TAMILARASAN                     ,1,1,2018/10/23  17:25:08
624,1,22,mohammed.yousuf                 ,1,1,2018/10/23  18:22:51
625,1,21,NAVEEN.RAJ                      ,1,1,2018/10/23  18:36:15
626,1,2,Bharath.S                       ,1,1,2018/10/23  18:49:01
627,1,6,GANESH.A                        ,1,1,2018/10/23  18:49:20
628,1,13,SHERAJ                          ,1,1,2018/10/23  18:49:28
629,1,23,rajakumar                       ,1,1,2018/10/23  18:50:15
630,1,10,SASITHARAN                      ,1,1,2018/10/23  18:51:55
631,1,24,vidya                           ,1,1,2018/10/23  18:52:17
632,1,5,DEEPTHIKA.PS                    ,1,1,2018/10/23  18:57:10
633,1,4,CHANDRAMOULI.AR                 ,1,1,2018/10/23  18:57:32
634,1,14,SHIVA.A                         ,1,1,2018/10/23  18:57:36
635,1,7,KRISHNAKUMAR.L                  ,1,1,2018/10/23  19:06:23
636,1,15,SIDDARDH.RA                     ,1,1,2018/10/23  19:06:31
637,1,19,TAMILSELVAN.AV                  ,1,1,2018/10/23  22:06:07
638,1,19,TAMILSELVAN.AV                  ,1,1,2018/10/24  09:05:08
639,1,10,SASITHARAN                      ,1,1,2018/10/24  09:20:19
640,1,21,NAVEEN.RAJ                      ,1,1,2018/10/24  09:23:26
641,1,4,CHANDRAMOULI.AR                 ,1,1,2018/10/24  09:36:21
642,1,15,SIDDARDH.RA                     ,1,1,2018/10/24  09:36:43
643,1,12,VICTOR                          ,1,1,2018/10/24  09:43:24
644,1,14,SHIVA.A                         ,1,1,2018/10/24  09:44:12
645,1,23,rajakumar                       ,1,1,2018/10/24  09:45:20
646,1,6,GANESH.A                        ,1,1,2018/10/24  09:48:23
647,1,7,KRISHNAKUMAR.L                  ,1,1,2018/10/24  09:51:06
648,1,13,SHERAJ                          ,1,1,2018/10/24  09:54:56
649,1,24,vidya                           ,1,1,2018/10/24  09:55:01
650,1,5,DEEPTHIKA.PS                    ,1,1,2018/10/24  09:58:36
651,1,8,MAHALINGAM                      ,1,1,2018/10/24  09:59:50
652,1,2,Bharath.S                       ,1,1,2018/10/24  09:59:53
653,1,11,SEENIVASAN.M                    ,1,1,2018/10/24  10:04:26
654,1,18,TAMILARASAN                     ,1,1,2018/10/24  10:20:34
655,1,18,TAMILARASAN                     ,1,1,2018/10/24  18:19:58
656,1,22,mohammed.yousuf                 ,1,1,2018/10/24  18:25:11
657,1,23,rajakumar                       ,1,1,2018/10/24  18:48:17
658,1,4,CHANDRAMOULI.AR                 ,1,1,2018/10/24  18:50:14
659,1,5,DEEPTHIKA.PS                    ,1,1,2018/10/24  18:50:20
660,1,24,vidya                           ,1,1,2018/10/24  18:50:24
661,1,14,SHIVA.A                         ,1,1,2018/10/24  18:50:31
662,1,19,TAMILSELVAN.AV                  ,1,1,2018/10/24  18:50:37
663,1,11,SEENIVASAN.M                    ,1,1,2018/10/24  18:50:42
664,1,21,NAVEEN.RAJ                      ,1,1,2018/10/24  18:50:44
665,1,15,SIDDARDH.RA                     ,1,1,2018/10/24  18:50:49
666,1,7,KRISHNAKUMAR.L                  ,1,1,2018/10/24  18:52:05
667,1,13,SHERAJ                          ,1,1,2018/10/24  18:53:34
668,1,6,GANESH.A                        ,1,1,2018/10/24  18:53:39
669,1,12,VICTOR                          ,1,1,2018/10/24  18:54:05
670,1,2,Bharath.S                       ,1,1,2018/10/24  19:03:54
671,1,10,SASITHARAN                      ,1,1,2018/10/24  21:35:03
672,1,10,SASITHARAN                      ,1,1,2018/10/25  09:21:58
673,1,4,CHANDRAMOULI.AR                 ,1,1,2018/10/25  09:30:27
674,1,12,VICTOR                          ,1,1,2018/10/25  09:35:01
675,1,18,TAMILARASAN                     ,1,1,2018/10/25  09:35:03
676,1,24,vidya                           ,1,1,2018/10/25  09:35:46
677,1,23,rajakumar                       ,1,1,2018/10/25  09:37:08
678,1,15,SIDDARDH.RA                     ,1,1,2018/10/25  09:48:30
679,1,5,DEEPTHIKA.PS                    ,1,1,2018/10/25  09:49:20
680,1,11,SEENIVASAN.M                    ,1,1,2018/10/25  09:54:43
681,1,2,Bharath.S                       ,1,1,2018/10/25  09:56:03
682,1,6,GANESH.A                        ,1,1,2018/10/25  09:59:46
683,1,22,mohammed.yousuf                 ,1,1,2018/10/25  10:01:04
684,1,14,SHIVA.A                         ,1,1,2018/10/25  10:03:33
685,1,19,TAMILSELVAN.AV                  ,1,1,2018/10/25  10:04:51
686,1,7,KRISHNAKUMAR.L                  ,1,1,2018/10/25  10:04:57
687,1,21,NAVEEN.RAJ                      ,1,1,2018/10/25  10:08:02
688,1,13,SHERAJ                          ,1,1,2018/08/25  10:59:01
689,1,8,MAHALINGAM                      ,1,1,2018/08/25  12:53:27
690,1,22,mohammed.yousuf                 ,1,1,2018/08/25  16:15:06
691,1,18,TAMILARASAN                     ,1,1,2018/08/25  18:06:36
692,1,23,rajakumar                       ,1,1,2018/08/25  18:16:55
693,1,6,GANESH.A                        ,1,1,2018/08/25  18:18:47
694,1,19,TAMILSELVAN.AV                  ,1,1,2018/08/25  18:25:56
695,1,21,NAVEEN.RAJ                      ,1,1,2018/08/25  18:26:01
696,1,11,SEENIVASAN.M                    ,1,1,2018/08/25  18:26:40
697,1,17,SOUNDARYA                       ,1,1,2018/08/25  18:28:32
698,1,13,SHERAJ                          ,1,1,2018/08/25  18:42:33
699,1,24,vidya                           ,1,1,2018/08/25  18:45:29
700,1,5,DEEPTHIKA.PS                    ,1,1,2018/08/25  18:45:36
701,1,4,CHANDRAMOULI.AR                 ,1,1,2018/08/25  18:45:58
702,1,8,MAHALINGAM                      ,1,1,2018/08/25  18:46:50
703,1,2,Bharath.S                       ,1,1,2018/08/25  18:46:54
704,1,7,KRISHNAKUMAR.L                  ,1,1,2018/08/25  18:47:29
705,1,15,SIDDARDH.RA                     ,1,1,2018/08/25  18:47:33
706,1,14,SHIVA.A                         ,1,1,2018/08/25  18:47:36
707,1,10,SASITHARAN                      ,1,1,2018/08/25  18:47:38
708,1,4,CHANDRAMOULI.AR                 ,1,1,2018/08/26  09:29:08
709,1,10,SASITHARAN                      ,1,1,2018/08/26  09:29:10
710,1,8,MAHALINGAM                      ,1,1,2018/08/26  09:29:15
711,1,24,vidya                           ,1,1,2018/08/26  09:29:27
712,1,23,rajakumar                       ,1,1,2018/08/26  09:29:31
713,1,5,DEEPTHIKA.PS                    ,1,1,2018/08/26  09:33:41
714,1,15,SIDDARDH.RA                     ,1,1,2018/08/26  09:36:49
715,1,6,GANESH.A                        ,1,1,2018/08/26  09:40:44
716,1,7,KRISHNAKUMAR.L                  ,1,1,2018/08/26  09:47:28
717,1,11,SEENIVASAN.M                    ,1,1,2018/08/26  09:49:05
718,1,2,Bharath.S                       ,1,1,2018/08/26  09:50:23
719,1,19,TAMILSELVAN.AV                  ,1,1,2018/08/26  09:57:18
720,1,14,SHIVA.A                         ,1,1,2018/08/26  09:57:21
721,1,13,SHERAJ                          ,1,1,2018/08/26  09:58:18
722,1,22,mohammed.yousuf                 ,1,1,2018/08/26  10:07:18
723,1,21,NAVEEN.RAJ                      ,1,1,2018/08/26  10:08:53
724,1,12,VICTOR                          ,1,1,2018/08/26  10:11:26
725,1,18,TAMILARASAN                     ,1,1,2018/08/26  10:15:29
726,1,3,BHASKAR.R                       ,1,1,2018/08/26  10:33:57
727,1,17,SOUNDARYA                       ,1,1,2018/08/26  10:34:01
728,1,17,SOUNDARYA                       ,1,1,2018/08/26  16:57:10
729,1,4,CHANDRAMOULI.AR                 ,1,1,2018/08/26  18:10:53
730,1,23,rajakumar                       ,1,1,2018/08/26  18:18:36
731,1,12,VICTOR                          ,1,1,2018/08/26  18:24:18
732,1,22,mohammed.yousuf                 ,1,1,2018/08/26  18:24:30
733,1,24,vidya                           ,1,1,2018/08/26  18:27:36
734,1,14,SHIVA.A                         ,1,1,2018/08/26  18:27:48
735,1,15,SIDDARDH.RA                     ,1,1,2018/08/26  18:27:58
736,1,5,DEEPTHIKA.PS                    ,1,1,2018/08/26  18:28:04
737,1,8,MAHALINGAM                      ,1,1,2018/08/26  18:28:18
738,1,19,TAMILSELVAN.AV                  ,1,1,2018/08/26  18:31:28
739,1,8,MAHALINGAM                      ,1,1,2018/08/26  18:31:30
740,1,21,NAVEEN.RAJ                      ,1,1,2018/08/26  18:32:10
741,1,11,SEENIVASAN.M                    ,1,1,2018/08/26  18:32:32
742,1,7,KRISHNAKUMAR.L                  ,1,1,2018/08/26  18:32:35
743,1,6,GANESH.A                        ,1,1,2018/08/26  18:32:43
744,1,10,SASITHARAN                      ,1,1,2018/08/26  18:34:58
745,1,13,SHERAJ                          ,1,1,2018/08/26  18:37:11
746,1,10,SASITHARAN                      ,1,1,2018/08/26  18:47:31
747,1,3,BHASKAR.R                       ,1,1,2018/08/26  19:14:17
748,1,1,shivv                           ,1,1,2018/08/27  09:54:55
749,1,15,SIDDARDH.RA                     ,1,1,2018/08/27  09:55:34
750,1,7,KRISHNAKUMAR.L                  ,1,1,2018/08/27  09:57:07
751,1,10,SASITHARAN                      ,1,1,2018/08/27  10:14:17
752,1,19,TAMILSELVAN.AV                  ,1,1,2018/08/27  10:22:19
753,1,10,SASITHARAN                      ,1,1,2018/08/27  16:36:45
754,1,19,TAMILSELVAN.AV                  ,1,1,2018/08/27  17:29:56
755,1,1,shivv                           ,1,1,2018/08/27  18:18:06
756,1,15,SIDDARDH.RA                     ,1,1,2018/08/27  18:18:11
757,1,7,KRISHNAKUMAR.L                  ,1,1,2018/08/27  18:18:13
758,1,6,GANESH.A                        ,1,1,2018/08/29  09:30:55
759,1,10,SASITHARAN                      ,1,1,2018/08/29  09:31:30
760,1,15,SIDDARDH.RA                     ,1,1,2018/08/29  09:31:43
761,1,23,rajakumar                       ,1,1,2018/08/29  09:34:37
762,1,1,shivv                           ,1,1,2018/08/29  09:48:07
763,1,7,KRISHNAKUMAR.L                  ,1,1,2018/08/29  09:48:11
764,1,12,VICTOR                          ,1,1,2018/08/29  09:50:01
765,1,2,Bharath.S                       ,1,1,2018/08/29  09:54:20
766,1,17,SOUNDARYA                       ,1,1,2018/08/29  09:54:57
767,1,22,mohammed.yousuf                 ,1,1,2018/08/29  10:01:30
768,1,4,CHANDRAMOULI.AR                 ,1,1,2018/08/29  10:01:32
769,1,24,vidya                           ,1,1,2018/08/29  10:02:00
770,1,19,TAMILSELVAN.AV                  ,1,1,2018/08/29  10:07:07
771,1,14,SHIVA.A                         ,1,1,2018/08/29  10:07:11
772,1,11,SEENIVASAN.M                    ,1,1,2018/08/29  10:07:13
773,1,21,NAVEEN.RAJ                      ,1,1,2018/08/29  10:12:55
774,1,8,MAHALINGAM                      ,1,1,2018/08/29  10:19:46
775,1,13,SHERAJ                          ,1,1,2018/08/29  11:00:45
776,1,5,DEEPTHIKA.PS                    ,1,1,2018/08/29  12:09:25
777,1,22,mohammed.yousuf                 ,1,1,2018/08/29  18:37:49
778,1,21,NAVEEN.RAJ                      ,1,1,2018/08/29  18:37:55
779,1,17,SOUNDARYA                       ,1,1,2018/08/29  18:48:20
780,1,15,SIDDARDH.RA                     ,1,1,2018/08/29  18:50:53
781,1,7,KRISHNAKUMAR.L                  ,1,1,2018/08/29  18:50:56
782,1,19,TAMILSELVAN.AV                  ,1,1,2018/08/29  18:51:27
783,1,11,SEENIVASAN.M                    ,1,1,2018/08/29  18:51:56
784,1,12,VICTOR                          ,1,1,2018/08/29  19:01:32
785,1,5,DEEPTHIKA.PS                    ,1,1,2018/08/29  19:03:01
786,1,24,vidya                           ,1,1,2018/08/29  19:03:10
787,1,4,CHANDRAMOULI.AR                 ,1,1,2018/08/29  19:04:21
788,1,14,SHIVA.A                         ,1,1,2018/08/29  19:04:24
789,1,10,SASITHARAN                      ,1,1,2018/08/29  19:04:43
790,1,23,rajakumar                       ,1,1,2018/08/29  19:06:56
791,1,8,MAHALINGAM                      ,1,1,2018/08/29  19:07:02
792,1,13,SHERAJ                          ,1,1,2018/08/29  19:07:54
793,1,6,GANESH.A                        ,1,1,2018/08/29  19:08:17
794,1,1,shivv                           ,1,1,2018/08/29  19:37:16
795,1,2,Bharath.S                       ,1,1,2018/08/29  19:37:18
796,1,10,SASITHARAN                      ,1,1,2018/08/30  09:26:04
797,1,24,vidya                           ,1,1,2018/08/30  09:35:19
798,1,23,rajakumar                       ,1,1,2018/08/30  09:37:26
799,1,4,CHANDRAMOULI.AR                 ,1,1,2018/08/30  09:38:16
800,1,15,SIDDARDH.RA                     ,1,1,2018/08/30  09:39:38
801,1,6,GANESH.A                        ,1,1,2018/08/30  09:49:28
802,1,19,TAMILSELVAN.AV                  ,1,1,2018/08/30  09:50:47
803,1,11,SEENIVASAN.M                    ,1,1,2018/08/30  09:50:54
804,1,14,SHIVA.A                         ,1,1,2018/08/30  09:51:03
805,1,2,Bharath.S                       ,1,1,2018/08/30  09:52:20
806,1,8,MAHALINGAM                      ,1,1,2018/08/30  09:52:24
807,1,7,KRISHNAKUMAR.L                  ,1,1,2018/08/30  09:57:41
808,1,5,DEEPTHIKA.PS                    ,1,1,2018/08/30  09:58:38
809,1,22,mohammed.yousuf                 ,1,1,2018/08/30  10:11:54
810,1,1,shivv                           ,1,1,2018/08/30  10:32:07
811,1,17,SOUNDARYA                       ,1,1,2018/08/30  10:33:59
812,1,21,NAVEEN.RAJ                      ,1,1,2018/08/30  10:36:05
813,1,18,TAMILARASAN                     ,1,1,2018/08/30  10:42:39
814,1,13,SHERAJ                          ,1,1,2018/08/30  10:52:16
815,1,12,VICTOR                          ,1,1,2018/08/30  12:07:51
816,1,22,mohammed.yousuf                 ,1,1,2018/08/30  18:30:52
817,1,18,TAMILARASAN                     ,1,1,2018/08/30  18:31:58
818,1,12,VICTOR                          ,1,1,2018/08/30  18:32:05
819,1,8,MAHALINGAM                      ,1,1,2018/08/30  18:35:56
820,1,6,GANESH.A                        ,1,1,2018/08/30  18:36:00
821,1,4,CHANDRAMOULI.AR                 ,1,1,2018/08/30  18:53:01
822,1,5,DEEPTHIKA.PS                    ,1,1,2018/08/30  18:53:10
823,1,24,vidya                           ,1,1,2018/08/30  18:53:13
824,1,13,SHERAJ                          ,1,1,2018/08/30  18:54:36
825,1,23,rajakumar                       ,1,1,2018/08/30  18:56:01
826,1,14,SHIVA.A                         ,1,1,2018/08/30  18:56:04
827,1,11,SEENIVASAN.M                    ,1,1,2018/08/30  18:56:10
828,1,10,SASITHARAN                      ,1,1,2018/08/30  18:58:37
829,1,21,NAVEEN.RAJ                      ,1,1,2018/08/30  18:59:44
830,1,19,TAMILSELVAN.AV                  ,1,1,2018/08/30  19:16:40
831,1,7,KRISHNAKUMAR.L                  ,1,1,2018/08/30  19:16:44
832,1,15,SIDDARDH.RA                     ,1,1,2018/08/30  19:19:27
833,1,1,shivv                           ,1,1,2018/08/30  19:20:19
834,1,2,Bharath.S                       ,1,1,2018/08/30  19:22:37
835,1,3,BHASKAR.R                       ,1,1,2018/08/30  19:46:58
836,1,1,shivv                           ,1,1,2018/08/31  09:16:05
837,1,23,rajakumar                       ,1,1,2018/08/31  09:34:57
838,1,4,CHANDRAMOULI.AR                 ,1,1,2018/08/31  09:35:53
839,1,5,DEEPTHIKA.PS                    ,1,1,2018/08/31  09:35:58
840,1,10,SASITHARAN                      ,1,1,2018/08/31  09:41:12
841,1,15,SIDDARDH.RA                     ,1,1,2018/08/31  09:41:38
842,1,6,GANESH.A                        ,1,1,2018/08/31  09:52:17
843,1,14,SHIVA.A                         ,1,1,2018/08/31  09:54:38
844,1,7,KRISHNAKUMAR.L                  ,1,1,2018/08/31  09:54:42
845,1,24,vidya                           ,1,1,2018/08/31  09:55:02
846,1,8,MAHALINGAM                      ,1,1,2018/08/31  09:58:06
847,1,2,Bharath.S                       ,1,1,2018/08/31  09:58:08
848,1,11,SEENIVASAN.M                    ,1,1,2018/08/31  09:58:11
849,1,13,SHERAJ                          ,1,1,2018/08/31  10:04:12
850,1,19,TAMILSELVAN.AV                  ,1,1,2018/08/31  10:07:01
851,1,18,TAMILARASAN                     ,1,1,2018/08/31  10:10:37
852,1,21,NAVEEN.RAJ                      ,1,1,2018/08/31  10:13:03
853,1,17,SOUNDARYA                       ,1,1,2018/08/31  10:14:21
854,1,3,BHASKAR.R                       ,1,1,2018/08/31  10:14:47
855,1,12,VICTOR                          ,1,1,2018/08/31  10:38:47
856,1,22,mohammed.yousuf                 ,1,1,2018/08/31  10:41:25
